Machine Learning for Cancer Variant Pathogenicity Classification
…
 clinical_significance
 Benign    :2495      
 Pathogenic:4971      
 VUS       :2534      

One thing I noticed is the significantly high population_af max of 0.49. We will also need to check to see if it is an outlier or not. Variants with high allele frequency (~0.5) means it is common in the population and are therefore less likely to be pathogenic. If it is associated with “benign” outcome, it can be concluded as normal.

Code

df %>% arrange(desc(population_af))

# A tibble: 10,000 × 9
   chromosome  position gene   variant_type population_af cadd_score sift       
   <fct>          <dbl> <fct>  <fct>                <dbl>      <dbl> <fct>      
 1 17          22467919 BRCA2  Missense             0.496      34.1  deleterious
 2 8          158606238 PTEN   Nonsense             0.480       8.97 tolerated  
 3 22         129673361 PIK3CA Synonymous           0.473      16.6  deleterious
 4 4           64903428 EGFR   Missense             0.468      28.3  tolerated  
 5 10          41400091 APC    Nonsense             0.451      21.4  tolerated  
 6 12          17569264 CDKN2A Splice_Site          0.450      21.0  deleterious
 7 21         186739055 ALK    Splice_Site          0.448      19.9  deleterious
 8 4          185675041 BRCA1  Splice_Site          0.442      31.4  tolerated  
 9 17         181808242 MET    Splice_Site          0.432      17.6  deleterious
10 12          19397126 NRAS   Missense             0.425      20.6  tolerated  
# ℹ 9,990 more rows
# ℹ 2 more variables: poly_phen <fct>, clinical_significance <fct>
…
